,topic,emotion,p_average
0,drag,0.0,0.016424778098570934
1,drag,0.1,0.01566066309424117
2,drag,0.2,0.015689201848392172
3,drag,0.3,0.015161814596652825
4,drag,0.4,0.015550697952349271
5,drag,0.5,0.016148427624791174
6,drag,0.6,0.016227867471914112
7,drag,0.7,0.019642347223152137
8,drag,0.8,0.005502712813384331
9,tiktok,0.0,0.006208616808612425
10,tiktok,0.1,0.007394448232510243
11,tiktok,0.2,0.0075123441236072605
12,tiktok,0.3,0.0077692899040464735
13,tiktok,0.4,0.0045176234701799515
14,tiktok,0.5,0.002476561245119051
15,tiktok,0.6,0.0025231640194600274
16,tiktok,0.7,0.006296992940888407
17,tiktok,0.8,0.022103719333613634
