,topic,score,shares_avg,views_avg,tweet_count
0,abortion,0.0,9.53070654529749,4289.3285218899,23070
1,abortion,0.1,9.267037380290242,1972.516218721038,3237
2,abortion,0.2,5.620201294033108,1125.0424155283968,1391
3,abortion,0.3,4.217367706919931,442.13297150610583,737
4,abortion,0.4,6.959533898305058,929.7182203389831,472
5,abortion,0.5,13.48464419475653,1189.887640449438,267
6,abortion,0.6,1.0602941176470577,99.38970588235294,136
7,abortion,0.7,1.2912280701754382,337.140350877193,57
8,abortion,0.8,0.348,66.08,25
9,abortion,0.9,0.0,0.0,1
10,drag,0.0,6.110893274141969,1749.9937129513203,38969
11,drag,0.1,5.199328809008989,878.6113058393616,13409
12,drag,0.2,2.22411689961884,480.5108005082592,3935
13,drag,0.3,5.986124737210947,752.6215837421163,1427
14,drag,0.4,1.3892215568862303,479.5688622754491,668
15,drag,0.5,14.54982206405693,15534.957295373666,281
16,drag,0.6,10.180869565217385,2543.1391304347826,115
17,drag,0.7,1.1558139534883722,362.7674418604651,43
18,drag,0.8,0.08333333333333333,32.833333333333336,6
19,drag,0.9,0.0,0.0,1
20,shooting,0.0,12.93534393187394,6983.675269217602,166501
21,shooting,0.1,9.296517885407711,3684.4014380681047,22113
22,shooting,0.2,7.332710605708747,1856.3515896959852,8618
23,shooting,0.3,8.665978530140293,2654.8045692265346,3633
24,shooting,0.4,4.6077263779528055,1628.6117125984251,2032
25,shooting,0.5,1.4602782071097284,328.8029366306028,1294
26,shooting,0.6,9.347910863509782,2171.701949860724,718
27,shooting,0.7,0.7950437317784261,413.402332361516,343
28,shooting,0.8,1.017567567567567,896.0608108108108,148
29,shooting,0.9,0.26666666666666666,161.88888888888889,9
30,tiktok,0.0,7.940433347089173,2988.555963681387,72690
31,tiktok,0.1,9.544695259593531,3062.8639954853275,5316
32,tiktok,0.2,3.9261700095510843,1311.7612225405921,1047
33,tiktok,0.3,12.754594594594574,3938.8702702702703,185
34,tiktok,0.4,5.268750000000001,1190.625,64
35,tiktok,0.5,0.8150000000000001,394.625,40
36,tiktok,0.6,0.45999999999999996,174.13333333333333,15
37,tiktok,0.7,0.29090909090909095,163.27272727272728,11
38,tiktok,0.8,0.42000000000000004,132.0,5
39,tiktok,0.9,0.0,0.0,1
40,trump,0.0,12.319258702139994,4568.453568994289,42547
41,trump,0.1,3.7813776311653777,900.4315111530003,12732
42,trump,0.2,2.907876175548651,555.4149686520376,5104
43,trump,0.3,2.4148735533647785,282.09944277753965,2333
44,trump,0.4,1.3323404255319145,345.91574468085105,1175
45,trump,0.5,1.504231311706632,140.94922425952046,709
46,trump,0.6,1.2512064343163547,242.94101876675603,373
47,trump,0.7,0.4028037383177569,92.74299065420561,214
48,trump,0.8,0.5205479452054795,44.56164383561644,73
49,trump,0.9,0.0,21.6,5
50,writers,0.0,7.896442369099132,6702.183367709108,95513
51,writers,0.1,7.889688459850765,2741.7696358051776,2279
52,writers,0.2,2.1895622895622906,1092.5353535353536,297
53,writers,0.3,0.5756756756756758,197.01351351351352,74
54,writers,0.4,0.6710526315789475,748.3157894736842,38
55,writers,0.5,1.764,1565.16,25
56,writers,0.6,3.1611111111111114,1805.7777777777778,18
57,writers,0.7,0.2625,653.75,8
58,writers,0.8,0.028571428571428574,70.14285714285714,7
59,writers,0.9,0.0,0.0,1
