,topic,emotion,p_average
0,abortion,0.0,0.00463481496099507
1,abortion,0.1,0.004841102066044763
2,abortion,0.2,0.004297971552184988
3,abortion,0.3,0.004731288406497094
4,abortion,0.4,0.005340475172663997
5,abortion,0.5,0.004278999275660557
6,abortion,0.6,0.004496773199302544
7,abortion,0.7,0.00456836409243133
8,abortion,0.8,0.0043700966400164075
9,abortion,0.9,0.004419744756843401
10,tiktok,0.0,0.004502741697525511
11,tiktok,0.1,0.0035669836081554363
12,tiktok,0.2,0.0030612034283291224
13,tiktok,0.3,0.0031680154093297764
14,tiktok,0.4,0.0031708224799262023
15,tiktok,0.5,0.002986516319109028
16,tiktok,0.6,0.003146043861176253
17,tiktok,0.7,0.0028849492476737295
18,tiktok,0.8,0.003028115896399602
19,tiktok,0.9,0.003084104079015424
20,drag,0.0,0.003429678413705227
21,drag,0.1,0.003636496525354638
22,drag,0.2,0.0032690045912741276
23,drag,0.3,0.0033962413723612815
24,drag,0.4,0.0036786624918605684
25,drag,0.5,0.003229683597723829
26,drag,0.6,0.0034200435487145896
27,drag,0.7,0.0033712768202530537
28,drag,0.8,0.003315530511283406
29,drag,0.9,0.0032170880923561894
