,topic,score,shares_avg,views_avg,tweet_count
0,abortion,0.0,4.493954248366046,2062.71977124183,1224
1,abortion,0.1,5.13736625514408,1874.8012345679012,2430
2,abortion,0.2,4.445001844337921,1695.4920693471045,2711
3,abortion,0.3,6.397884231536974,3046.4367265469064,2505
4,abortion,0.4,9.2850971922246,3351.1369330453563,2315
5,abortion,0.5,9.279352678571424,4672.091517857143,2688
6,abortion,0.6,13.464654895666067,3250.065489566613,3115
7,abortion,0.7,14.084453227931304,5563.584980237154,3795
8,abortion,0.8,8.844357306809348,4643.842960979342,5228
9,abortion,0.9,9.99050576752429,3809.8107068914524,3381
10,drag,0.0,8.544277673545862,1381.3215759849907,2665
11,drag,0.1,3.621942281264144,921.4742708810505,6549
12,drag,0.2,3.523109182935615,954.2867678958785,6915
13,drag,0.3,5.648894686255552,1142.5814911437594,7283
14,drag,0.4,6.765039787798196,1703.0533156498673,7540
15,drag,0.5,5.839211105002609,2044.4117647058824,7276
16,drag,0.6,5.11169515669508,1736.7501424501424,7020
17,drag,0.7,10.863305058121233,2800.2711278667925,6366
18,drag,0.8,3.2025608194622195,868.1496250228645,5467
19,drag,0.9,1.8895033860045043,461.8611738148984,1772
20,shooting,0.0,5.901210999471697,4481.135113696457,18910
21,shooting,0.1,8.609421540802591,4925.095005412997,34177
22,shooting,0.2,9.501200072953468,5948.082436622287,27415
23,shooting,0.3,9.787141953556233,4563.1853257432,22134
24,shooting,0.4,14.202314358362976,7787.093664054797,19271
25,shooting,0.5,11.409752890253134,5220.8478987452745,18251
26,shooting,0.6,15.216630645608568,7449.98514824051,18045
27,shooting,0.7,15.279085564245031,7305.240025115589,17519
28,shooting,0.8,17.130363667022802,8602.993592265753,17791
29,shooting,0.9,21.884634125851306,8193.026211879358,11903
30,tiktok,0.0,2.154227642276434,1005.9528455284553,2460
31,tiktok,0.1,6.6970943346157465,2318.360753615497,7537
32,tiktok,0.2,5.690759251382283,2582.396533390047,9404
33,tiktok,0.3,6.110849818328475,1940.2671578522406,9908
34,tiktok,0.4,5.480075152653678,2164.9460779708784,10645
35,tiktok,0.5,15.187772520642445,3792.6542350867426,10779
36,tiktok,0.6,12.761531261699906,4854.091351553725,10684
37,tiktok,0.7,8.55175656127317,3948.371564372804,9678
38,tiktok,0.8,2.7606376811594284,1801.661884057971,6900
39,tiktok,0.9,3.4423076923076916,4231.156023222061,1378
40,trump,0.0,7.353505471956121,2772.5728454172367,5848
41,trump,0.1,7.698961542850509,2766.902202442086,8763
42,trump,0.2,8.788249242523893,3845.131866684231,7591
43,trump,0.3,9.516199999999818,2560.9613846153848,6500
44,trump,0.4,11.499194254685435,4052.052373445437,5709
45,trump,0.5,7.63873133076008,4154.347709347206,5959
46,trump,0.6,7.606106289020713,2279.4789097000153,6567
47,trump,0.7,9.311830523645982,3096.839325675071,6703
48,trump,0.8,11.570962149667732,3831.724068188385,6922
49,trump,0.9,11.338634913884576,2874.098873059749,4703
50,writers,0.0,5.008606152236109,4435.273884979938,17197
51,writers,0.1,5.757336182336421,4984.476614434948,16848
52,writers,0.2,6.094236206110215,5295.620975832193,10965
53,writers,0.3,12.120531633389636,7166.529829203752,8314
54,writers,0.4,4.439511396205733,4131.425003412038,7327
55,writers,0.5,6.519302120141231,6694.362926972909,6792
56,writers,0.6,10.248937807881628,9058.508004926109,6496
57,writers,0.7,9.1645886976554,6108.633419162488,7379
58,writers,0.8,13.030502293848071,11734.648511939771,8501
59,writers,0.9,11.909811589051253,10608.232255006518,8439
