,topic,type,p_average,reply_average,quote_average,retweet_average,views,tweets_count
0,abortion,none,0.0033062602561823103,0.0006603272298916503,0.0002334804685375647,0.00300674706465517,1371.6288905313236,36531
1,abortion,blue,0.0025784889141032092,0.0006796715266235224,0.00015936026415557374,0.0023511614972853015,10559.680269246943,2377
2,abortion,business,0.0007918606304487594,0.00042125708033438457,9.154573778080253e-05,0.000658189184634517,33627.72982062785,892
3,abortion,government,0.0030454813157425754,0.001533319121236011,0.0001870143347479702,0.002705135068871006,42439.752631578944,190
4,drag,blue,0.0037392231350221235,0.0015787551202489916,0.00023543146893164287,0.003345916154065525,11049.693340216827,3874
5,drag,none,0.004014095827073994,0.0015580658653988923,0.00022637118929895705,0.00363191805123453,679.5918556223958,62669
6,drag,business,0.0008940773918867732,0.0015052418565233705,0.00025756405938074186,0.0004859891468536941,57064.15116279069,86
7,drag,government,0.001821672647482343,0.0019885259765491077,0.00013713972252062811,0.0014856803273068046,29167.333333333332,3
8,shooting,none,0.002317105667266711,0.0008301659959779614,0.00022979736344916934,0.002004291704220994,1686.703006944129,183176
9,shooting,business,0.0007066453131596952,0.000607239828083591,0.00016455727026821933,0.00048136406008310534,74200.24472393945,4691
10,shooting,blue,0.0024889626399423803,0.0009460322455551719,0.00025680869697154956,0.0021375507184152745,26390.09873628657,21603
11,shooting,government,0.0018663218148684247,0.0026622945016386472,0.0002931591125251135,0.0013069332521794454,270572.0163043477,184
12,tiktok,none,0.0036450776197039726,0.0005537593140808081,0.00023778268639526286,0.0033519190019012557,1164.8256451271297,85022
13,tiktok,blue,0.002256610316162932,0.0005522001576464487,0.0002584971681103554,0.0019428931322878666,11166.4164488236,9946
14,tiktok,business,0.0004321949574323576,0.000337657437702448,8.164156511211777e-05,0.0003167876485499936,31352.54423868317,972
15,tiktok,government,0.004942585179736084,0.0039517094913527374,0.000549305019193051,0.00399810921140776,43557.431578947355,95
16,trump,none,0.0036543647471311523,0.0010181548519462816,0.00017689875124055754,0.00337565051069619,1384.6737059135946,64022
17,trump,blue,0.00258680906867327,0.0012850125838522138,0.00017029342961479536,0.002288014380673225,21443.591773551547,4522
18,trump,business,0.0009169840646306338,0.0008861693260063784,6.95512463210043e-05,0.0007588158857089912,31302.41205412054,813
19,trump,government,0.007194616977225673,0.004658385093167702,0.0005175983436853002,0.006211180124223602,3864.0,1
20,writers,none,0.0014261820020913204,0.00019160314894580213,0.00017953442640701622,0.0012274872607900918,4605.067829368196,86924
21,writers,business,0.0005776755630369358,0.00013811859134599518,0.00011927214578313402,0.00044459155811920405,58705.67789165448,2049
22,writers,blue,0.0010143586791593765,0.00035407649535241245,0.0001794439981112472,0.0007995070315128648,14404.191780821922,8614
23,writers,government,0.0032356636836204057,0.0005169469235852491,0.0001428671673580327,0.003041101823903848,247607.625,8
